# Blender MTL File: 'None'
# Material Count: 9

newmtl Belly05
Ns 100.000000
Ka 0.058824 0.058824 0.058824
Kd 1.000000 1.000000 1.000000
Ks 1.000000 1.000000 1.000000
Ke 0.000000 0.000000 0.000000
Ni 1.000000
d 1.000000
illum 2
map_Kd tex05.tga

newmtl Eye00
Ns 100.000000
Ka 0.058824 0.058824 0.058824
Kd 1.000000 0.611765 0.000000
Ks 1.000000 1.000000 1.000000
Ke 0.000000 0.000000 0.000000
Ni 1.000000
d 1.000000
illum 2
map_Kd tex00.tga

newmtl Eye01
Ns 100.000000
Ka 0.058824 0.058824 0.058824
Kd 1.000000 0.611765 0.000000
Ks 1.000000 1.000000 1.000000
Ke 0.000000 0.000000 0.000000
Ni 1.000000
d 1.000000
illum 2
map_Kd tex01.tga

newmtl Nose07
Ns 100.000000
Ka 0.058824 0.058824 0.058824
Kd 1.000000 0.749020 0.749020
Ks 1.000000 1.000000 1.000000
Ke 0.000000 0.000000 0.000000
Ni 1.000000
d 1.000000
illum 2
map_Kd tex07.tga

newmtl Rattle08
Ns 100.000000
Ka 0.058824 0.058824 0.058824
Kd 0.831373 0.647059 0.470588
Ks 1.000000 1.000000 1.000000
Ke 0.000000 0.000000 0.000000
Ni 1.000000
d 1.000000
illum 2

newmtl Slit03
Ns 100.000000
Ka 0.058824 0.058824 0.058824
Kd 0.000000 0.000000 0.000000
Ks 1.000000 1.000000 1.000000
Ke 0.000000 0.000000 0.000000
Ni 1.000000
d 1.000000
illum 2
map_Kd tex03.tga

newmtl default.smooth02
Ns 100.000000
Ka 0.058824 0.058824 0.058824
Kd 0.800000 0.800000 0.800000
Ks 1.000000 1.000000 1.000000
Ke 0.000000 0.000000 0.000000
Ni 1.000000
d 1.000000
illum 2
map_Kd tex02.tga

newmtl default.smooth04
Ns 100.000000
Ka 0.058824 0.058824 0.058824
Kd 0.800000 0.800000 0.800000
Ks 1.000000 1.000000 1.000000
Ke 0.000000 0.000000 0.000000
Ni 1.000000
d 1.000000
illum 2

newmtl default.smooth06
Ns 100.000000
Ka 0.058824 0.058824 0.058824
Kd 0.800000 0.800000 0.800000
Ks 1.000000 1.000000 1.000000
Ke 0.000000 0.000000 0.000000
Ni 1.000000
d 1.000000
illum 2
map_Kd tex06.tga
